* commit 9da319ad2eadee37fe95f5dba97bc17246ad7482       refs/heads/master (HEAD -> master, origin/master, origin/HEAD)
| Author: kablukovich <mypofta@mail.ru>
| Date:   Wed Mar 20 22:12:58 2019 +0300
|
|     ez
|
* commit 87c4e09e8ea54c8dc12e5959c42264214a1d5ac2       refs/heads/master
  Author: kablukovich <mypofta@mail.ru>
  Date:   Wed Mar 20 18:30:11 2019 +0000

      Initial commit
